// Jest Snapshot v1, https://goo.gl/fbAQLP

exports[`vue/prefer-slot-shorthand should contain contextual documentation 1`] = `
{
  "description": "Prefer to use \`#foo\` over \`v-slot:foo\`.

Vue.js supports a shorthand syntax for slots using \`#\` instead of \`v-slot:\` or the deprecated \`slot\` attribute, e.g. using \`#header\` instead of \`v-slot:header\`.",
}
`;

exports[`vue/prefer-slot-shorthand should contain documentation 1`] = `
{
  "description": "Prefer to use \`#my-slot\` over \`v-slot:my-slot\`.

Vue.js supports a shorthand syntax for slots using \`#\` instead of \`v-slot:\` or the deprecated \`slot\` attribute, e.g. using \`#header\` instead of \`v-slot:header\`.",
}
`;
